…
The expanded words contains many things that we would not recognize as a
word, e.g. `finances.In`. Since we only care about words that actually
occur

``` r
library(quanteda)
library(tidyverse)
dfm = dfm(tokens(sotu::sotu_text))
words = quanteda.textstats::textstat_frequency(dfm) %>%
  as_tibble() %>% select(word=feature, freq=frequency) %>%
  filter(word %in% words)
words
```

    ## # A tibble: 22 x 2
    ##    word          freq
    ##    <chr>        <dbl>
    ##  1 economic      1225
    ##  2 economy       1014
    ##  3 financial      416
    ##  4 finance        113
    ##  5 finances       102
    ##  6 economical      86
    ##  7 financing       81
    ##  8 economies       76
    ##  9 economically    57
    ## 10 financed        21
    ## # … with 12 more rows

This looks reasonable – the only word that probably doesn’t belong is
`ecosystems`. Note that this was intentional: hopefully, we can
automatically identify such mistakes.

## Internal cohesion of dictionary

``` r
sim = pairwise_similarities(ft_model, words$word)
sim
```

    ## # A tibble: 231 x 3
    ##    word1    word2        similarity
    ##    <chr>    <chr>             <dbl>
    ##  1 economic economy           0.672
    ##  2 economic financial         0.650
    ##  3 economic finance           0.404
    ##  4 economic finances          0.353
    ##  5 economic economical        0.527
    ##  6 economic financing         0.357
    ##  7 economic economies         0.560
    ##  8 economic economically      0.419
    ##  9 economic financed          0.180
    ## 10 economic economics         0.578
    ## # … with 221 more rows
…
## Automatic expansion using word embeddings

Starting from this seed set of 22 words, we can find words that are
semantically close to the starting words:

``` r
set.seed(1)
results = expand_terms(ft_model, words$word, vocabulary = colnames(dfm))
results
```

    ## # A tibble: 173 x 6
    ##    word        rank in_test precision recall     f4
    ##    <chr>      <int>   <dbl>     <dbl>  <dbl>  <dbl>
    ##  1 bankers        1       0     0     0      0     
    ##  2 economize      2       1     0.5   0.0909 0.0955
    ##  3 banker         3       0     0.333 0.0909 0.0950
    ##  4 economies      4       1     0.5   0.182  0.189 
    ##  5 financier      5       0     0.4   0.182  0.188 
    ##  6 financiers     6       0     0.333 0.182  0.187 
    ##  7 finance        7       0     0.286 0.182  0.186 
    ##  8 financing      8       0     0.25  0.182  0.185 
    ##  9 economy        9       0     0.222 0.182  0.184 
    ## 10 economic      10       0     0.2   0.182  0.183 
    ## # … with 163 more rows
…
Since we didn’t remove the `ecosystem` word, this also includes terms
related to that, such as habitat. We can check the internal consistency
of the expanded dictionary by looking at distance from centroid vector:

``` r
d = distance_from_centroid(ft_model, terms) |> 
  enframe(name = "word", value="similarity") |>
  arrange(similarity)
d
```

    ## # A tibble: 87 x 2
    ##    word           similarity
    ##    <chr>               <dbl>
    ##  1 habitat             0.254
    ##  2 watersheds          0.269
    ##  3 wetlands            0.283
    ##  4 inexpensive         0.290
    ##  5 affordable          0.323
    ##  6 co-financed         0.331
    ##  7 statistician        0.337
    ##  8 efficient           0.342
    ##  9 militarily          0.344
    ## 10 cost-effective      0.352
    ## # … with 77 more rows
…
